%YAML 1.1
%TAG !u! tag:unity3d.com,2011:
--- !u!1 &7819242368695870720
GameObject:
  m_ObjectHideFlags: 0
  m_CorrespondingSourceObject: {fileID: 0}
  m_PrefabInstance: {fileID: 0}
  m_PrefabAsset: {fileID: 0}
  serializedVersion: 6
  m_Component:
  - component: {fileID: 1354458152278758890}
  - component: {fileID: 1547594858051464152}
  - component: {fileID: 1790785649126501051}
  m_Layer: 0
  m_Name: Layer1
  m_TagString: Untagged
  m_Icon: {fileID: 0}
  m_NavMeshLayer: 0
  m_StaticEditorFlags: 0
  m_IsActive: 1
--- !u!4 &1354458152278758890
Transform:
  m_ObjectHideFlags: 0
  m_CorrespondingSourceObject: {fileID: 0}
  m_PrefabInstance: {fileID: 0}
  m_PrefabAsset: {fileID: 0}
  m_GameObject: {fileID: 7819242368695870720}
  m_LocalRotation: {x: -0, y: -0, z: -0, w: 1}
  m_LocalPosition: {x: 0, y: 0, z: 0}
  m_LocalScale: {x: 1, y: 1, z: 1}
  m_Children: []
  m_Father: {fileID: 3923456484342254346}
  m_RootOrder: 0
  m_LocalEulerAnglesHint: {x: 0, y: 0, z: 0}
--- !u!1839735485 &1547594858051464152
Tilemap:
  m_ObjectHideFlags: 0
  m_CorrespondingSourceObject: {fileID: 0}
  m_PrefabInstance: {fileID: 0}
  m_PrefabAsset: {fileID: 0}
  m_GameObject: {fileID: 7819242368695870720}
  m_Enabled: 1
  m_Tiles:
  - first: {x: 3, y: -12, z: 0}
    second:
      serializedVersion: 2
      m_TileIndex: 48
      m_TileSpriteIndex: 48
      m_TileMatrixIndex: 0
      m_TileColorIndex: 0
      m_TileObjectToInstantiateIndex: 65535
      dummyAlignment: 0
      m_AllTileFlags: 1073741825
  - first: {x: 4, y: -12, z: 0}
    second:
      serializedVersion: 2
      m_TileIndex: 49
      m_TileSpriteIndex: 49
      m_TileMatrixIndex: 0
      m_TileColorIndex: 0
      m_TileObjectToInstantiateIndex: 65535
      dummyAlignment: 0
      m_AllTileFlags: 1073741825
  - first: {x: 3, y: -11, z: 0}
    second:
      serializedVersion: 2
      m_TileIndex: 45
      m_TileSpriteIndex: 45
      m_TileMatrixIndex: 0
      m_TileColorIndex: 0
      m_TileObjectToInstantiateIndex: 65535
      dummyAlignment: 0
      m_AllTileFlags: 1073741825
  - first: {x: 4, y: -11, z: 0}
    second:
      serializedVersion: 2
      m_TileIndex: 46
      m_TileSpriteIndex: 46
      m_TileMatrixIndex: 0
      m_TileColorIndex: 0
      m_TileObjectToInstantiateIndex: 65535
      dummyAlignment: 0
      m_AllTileFlags: 1073741825
  - first: {x: 5, y: -11, z: 0}
    second:
      serializedVersion: 2
      m_TileIndex: 47
      m_TileSpriteIndex: 47
      m_TileMatrixIndex: 0
      m_TileColorIndex: 0
      m_TileObjectToInstantiateIndex: 65535
      dummyAlignment: 0
      m_AllTileFlags: 1073741825
  - first: {x: 3, y: -10, z: 0}
    second:
      serializedVersion: 2
      m_TileIndex: 42
      m_TileSpriteIndex: 42
      m_TileMatrixIndex: 0
      m_TileColorIndex: 0
      m_TileObjectToInstantiateIndex: 65535
      dummyAlignment: 0
      m_AllTileFlags: 1073741825
  - first: {x: 4, y: -10, z: 0}
    second:
      serializedVersion: 2
      m_TileIndex: 43
      m_TileSpriteIndex: 43
      m_TileMatrixIndex: 0
      m_TileColorIndex: 0
      m_TileObjectToInstantiateIndex: 65535
      dummyAlignment: 0
      m_AllTileFlags: 1073741825
  - first: {x: 5, y: -10, z: 0}
    second:
      serializedVersion: 2
      m_TileIndex: 44
      m_TileSpriteIndex: 44
      m_TileMatrixIndex: 0
      m_TileColorIndex: 0
      m_TileObjectToInstantiateIndex: 65535
      dummyAlignment: 0
      m_AllTileFlags: 1073741825
  - first: {x: -1, y: -9, z: 0}
    second:
      serializedVersion: 2
      m_TileIndex: 40
      m_TileSpriteIndex: 40
      m_TileMatrixIndex: 0
      m_TileColorIndex: 0
      m_TileObjectToInstantiateIndex: 65535
      dummyAlignment: 0
      m_AllTileFlags: 1073741825
  - first: {x: 0, y: -9, z: 0}
    second:
      serializedVersion: 2
      m_TileIndex: 41
      m_TileSpriteIndex: 41
      m_TileMatrixIndex: 0
      m_TileColorIndex: 0
      m_TileObjectToInstantiateIndex: 65535
      dummyAlignment: 0
      m_AllTileFlags: 1073741825
  - first: {x: 3, y: -9, z: 0}
    second:
      serializedVersion: 2
      m_TileIndex: 50
      m_TileSpriteIndex: 50
      m_TileMatrixIndex: 0
      m_TileColorIndex: 0
      m_TileObjectToInstantiateIndex: 65535
      dummyAlignment: 0
      m_AllTileFlags: 1073741825
  - first: {x: -1, y: -8, z: 0}
    second:
      serializedVersion: 2
      m_TileIndex: 38
      m_TileSpriteIndex: 38
      m_TileMatrixIndex: 0
      m_TileColorIndex: 0
      m_TileObjectToInstantiateIndex: 65535
      dummyAlignment: 0
      m_AllTileFlags: 1073741825
  - first: {x: 0, y: -8, z: 0}
    second:
      serializedVersion: 2
      m_TileIndex: 39
      m_TileSpriteIndex: 39
      m_TileMatrixIndex: 0
      m_TileColorIndex: 0
      m_TileObjectToInstantiateIndex: 65535
      dummyAlignment: 0
      m_AllTileFlags: 1073741825
  - first: {x: -1, y: -7, z: 0}
    second:
      serializedVersion: 2
      m_TileIndex: 36
      m_TileSpriteIndex: 36
      m_TileMatrixIndex: 0
      m_TileColorIndex: 0
      m_TileObjectToInstantiateIndex: 65535
      dummyAlignment: 0
      m_AllTileFlags: 1073741825
  - first: {x: 0, y: -7, z: 0}
    second:
      serializedVersion: 2
      m_TileIndex: 37
      m_TileSpriteIndex: 37
      m_TileMatrixIndex: 0
      m_TileColorIndex: 0
      m_TileObjectToInstantiateIndex: 65535
      dummyAlignment: 0
      m_AllTileFlags: 1073741825
  - first: {x: 7, y: -7, z: 0}
    second:
      serializedVersion: 2
      m_TileIndex: 51
      m_TileSpriteIndex: 51
      m_TileMatrixIndex: 0
      m_TileColorIndex: 0
      m_TileObjectToInstantiateIndex: 65535
      dummyAlignment: 0
      m_AllTileFlags: 1073741825
  - first: {x: -1, y: -5, z: 0}
    second:
      serializedVersion: 2
      m_TileIndex: 30
      m_TileSpriteIndex: 29
      m_TileMatrixIndex: 0
      m_TileColorIndex: 0
      m_TileObjectToInstantiateIndex: 65535
      dummyAlignment: 0
      m_AllTileFlags: 1073741825
  - first: {x: 0, y: -5, z: 0}
    second:
      serializedVersion: 2
      m_TileIndex: 31
      m_TileSpriteIndex: 30
      m_TileMatrixIndex: 0
      m_TileColorIndex: 0
      m_TileObjectToInstantiateIndex: 65535
      dummyAlignment: 0
      m_AllTileFlags: 1073741825
  - first: {x: 1, y: -5, z: 0}
    second:
      serializedVersion: 2
      m_TileIndex: 32
      m_TileSpriteIndex: 31
      m_TileMatrixIndex: 0
      m_TileColorIndex: 0
      m_TileObjectToInstantiateIndex: 65535
      dummyAlignment: 0
      m_AllTileFlags: 1073741825
  - first: {x: 2, y: -5, z: 0}
    second:
      serializedVersion: 2
      m_TileIndex: 33
      m_TileSpriteIndex: 32
      m_TileMatrixIndex: 0
      m_TileColorIndex: 0
      m_TileObjectToInstantiateIndex: 65535
      dummyAlignment: 0
      m_AllTileFlags: 1073741825
  - first: {x: 3, y: -5, z: 0}
    second:
      serializedVersion: 2
      m_TileIndex: 34
      m_TileSpriteIndex: 33
      m_TileMatrixIndex: 0
      m_TileColorIndex: 0
      m_TileObjectToInstantiateIndex: 65535
      dummyAlignment: 0
      m_AllTileFlags: 1073741825
  - first: {x: 4, y: -5, z: 0}
    second:
      serializedVersion: 2
      m_TileIndex: 35
      m_TileSpriteIndex: 1
      m_TileMatrixIndex: 0
      m_TileColorIndex: 0
      m_TileObjectToInstantiateIndex: 65535
      dummyAlignment: 0
      m_AllTileFlags: 1073741825
  - first: {x: -1, y: -4, z: 0}
    second:
      serializedVersion: 2
      m_TileIndex: 24
      m_TileSpriteIndex: 23
      m_TileMatrixIndex: 0
      m_TileColorIndex: 0
      m_TileObjectToInstantiateIndex: 65535
      dummyAlignment: 0
      m_AllTileFlags: 1073741825
  - first: {x: 0, y: -4, z: 0}
    second:
      serializedVersion: 2
      m_TileIndex: 25
      m_TileSpriteIndex: 24
      m_TileMatrixIndex: 0
      m_TileColorIndex: 0
      m_TileObjectToInstantiateIndex: 65535
      dummyAlignment: 0
      m_AllTileFlags: 1073741825
  - first: {x: 1, y: -4, z: 0}
    second:
      serializedVersion: 2
      m_TileIndex: 26
      m_TileSpriteIndex: 25
      m_TileMatrixIndex: 0
      m_TileColorIndex: 0
      m_TileObjectToInstantiateIndex: 65535
      dummyAlignment: 0
      m_AllTileFlags: 1073741825
  - first: {x: 2, y: -4, z: 0}
    second:
      serializedVersion: 2
      m_TileIndex: 27
      m_TileSpriteIndex: 26
      m_TileMatrixIndex: 0
      m_TileColorIndex: 0
      m_TileObjectToInstantiateIndex: 65535
      dummyAlignment: 0
      m_AllTileFlags: 1073741825
  - first: {x: 3, y: -4, z: 0}
    second:
      serializedVersion: 2
      m_TileIndex: 28
      m_TileSpriteIndex: 27
      m_TileMatrixIndex: 0
      m_TileColorIndex: 0
      m_TileObjectToInstantiateIndex: 65535
      dummyAlignment: 0
      m_AllTileFlags: 1073741825
  - first: {x: 4, y: -4, z: 0}
    second:
      serializedVersion: 2
      m_TileIndex: 29
      m_TileSpriteIndex: 28
      m_TileMatrixIndex: 0
      m_TileColorIndex: 0
      m_TileObjectToInstantiateIndex: 65535
      dummyAlignment: 0
      m_AllTileFlags: 1073741825
  - first: {x: -1, y: -3, z: 0}
    second:
      serializedVersion: 2
      m_TileIndex: 18
      m_TileSpriteIndex: 18
      m_TileMatrixIndex: 0
      m_TileColorIndex: 0
      m_TileObjectToInstantiateIndex: 65535
      dummyAlignment: 0
      m_AllTileFlags: 1073741825
  - first: {x: 0, y: -3, z: 0}
    second:
      serializedVersion: 2
      m_TileIndex: 19
      m_TileSpriteIndex: 19
      m_TileMatrixIndex: 0
      m_TileColorIndex: 0
      m_TileObjectToInstantiateIndex: 65535
      dummyAlignment: 0
      m_AllTileFlags: 1073741825
  - first: {x: 1, y: -3, z: 0}
    second:
      serializedVersion: 2
      m_TileIndex: 20
      m_TileSpriteIndex: 20
      m_TileMatrixIndex: 0
      m_TileColorIndex: 0
      m_TileObjectToInstantiateIndex: 65535
      dummyAlignment: 0
      m_AllTileFlags: 1073741825
  - first: {x: 2, y: -3, z: 0}
    second:
      serializedVersion: 2
      m_TileIndex: 21
      m_TileSpriteIndex: 21
      m_TileMatrixIndex: 0
      m_TileColorIndex: 0
      m_TileObjectToInstantiateIndex: 65535
      dummyAlignment: 0
      m_AllTileFlags: 1073741825
  - first: {x: 3, y: -3, z: 0}
    second:
      serializedVersion: 2
      m_TileIndex: 22
      m_TileSpriteIndex: 34
      m_TileMatrixIndex: 0
      m_TileColorIndex: 1
      m_TileObjectToInstantiateIndex: 65535
      dummyAlignment: 0
      m_AllTileFlags: 1073741827
  - first: {x: 4, y: -3, z: 0}
    second:
      serializedVersion: 2
      m_TileIndex: 23
      m_TileSpriteIndex: 22
      m_TileMatrixIndex: 0
      m_TileColorIndex: 0
      m_TileObjectToInstantiateIndex: 65535
      dummyAlignment: 0
      m_AllTileFlags: 1073741825
  - first: {x: -1, y: -2, z: 0}
    second:
      serializedVersion: 2
      m_TileIndex: 12
      m_TileSpriteIndex: 12
      m_TileMatrixIndex: 0
      m_TileColorIndex: 0
      m_TileObjectToInstantiateIndex: 65535
      dummyAlignment: 0
      m_AllTileFlags: 1073741825
  - first: {x: 0, y: -2, z: 0}
    second:
      serializedVersion: 2
      m_TileIndex: 13
      m_TileSpriteIndex: 13
      m_TileMatrixIndex: 0
      m_TileColorIndex: 0
      m_TileObjectToInstantiateIndex: 65535
      dummyAlignment: 0
      m_AllTileFlags: 1073741825
  - first: {x: 1, y: -2, z: 0}
    second:
      serializedVersion: 2
      m_TileIndex: 14
      m_TileSpriteIndex: 14
      m_TileMatrixIndex: 0
      m_TileColorIndex: 0
      m_TileObjectToInstantiateIndex: 65535
      dummyAlignment: 0
      m_AllTileFlags: 1073741825
  - first: {x: 2, y: -2, z: 0}
    second:
      serializedVersion: 2
      m_TileIndex: 15
      m_TileSpriteIndex: 15
      m_TileMatrixIndex: 0
      m_TileColorIndex: 0
      m_TileObjectToInstantiateIndex: 65535
      dummyAlignment: 0
      m_AllTileFlags: 1073741825
  - first: {x: 3, y: -2, z: 0}
    second:
      serializedVersion: 2
      m_TileIndex: 16
      m_TileSpriteIndex: 16
      m_TileMatrixIndex: 0
      m_TileColorIndex: 0
      m_TileObjectToInstantiateIndex: 65535
      dummyAlignment: 0
      m_AllTileFlags: 1073741825
  - first: {x: 4, y: -2, z: 0}
    second:
      serializedVersion: 2
      m_TileIndex: 17
      m_TileSpriteIndex: 17
      m_TileMatrixIndex: 0
      m_TileColorIndex: 0
      m_TileObjectToInstantiateIndex: 65535
      dummyAlignment: 0
      m_AllTileFlags: 1073741825
  - first: {x: -1, y: -1, z: 0}
    second:
      serializedVersion: 2
      m_TileIndex: 6
      m_TileSpriteIndex: 6
      m_TileMatrixIndex: 0
      m_TileColorIndex: 0
      m_TileObjectToInstantiateIndex: 65535
      dummyAlignment: 0
      m_AllTileFlags: 1073741825
  - first: {x: 0, y: -1, z: 0}
    second:
      serializedVersion: 2
      m_TileIndex: 7
      m_TileSpriteIndex: 7
      m_TileMatrixIndex: 0
      m_TileColorIndex: 0
      m_TileObjectToInstantiateIndex: 65535
      dummyAlignment: 0
      m_AllTileFlags: 1073741825
  - first: {x: 1, y: -1, z: 0}
    second:
      serializedVersion: 2
      m_TileIndex: 8
      m_TileSpriteIndex: 8
      m_TileMatrixIndex: 0
      m_TileColorIndex: 0
      m_TileObjectToInstantiateIndex: 65535
      dummyAlignment: 0
      m_AllTileFlags: 1073741825
  - first: {x: 2, y: -1, z: 0}
    second:
      serializedVersion: 2
      m_TileIndex: 9
      m_TileSpriteIndex: 9
      m_TileMatrixIndex: 0
      m_TileColorIndex: 0
      m_TileObjectToInstantiateIndex: 65535
      dummyAlignment: 0
      m_AllTileFlags: 1073741825
  - first: {x: 3, y: -1, z: 0}
    second:
      serializedVersion: 2
      m_TileIndex: 10
      m_TileSpriteIndex: 10
      m_TileMatrixIndex: 0
      m_TileColorIndex: 0
      m_TileObjectToInstantiateIndex: 65535
      dummyAlignment: 0
      m_AllTileFlags: 1073741825
  - first: {x: 4, y: -1, z: 0}
    second:
      serializedVersion: 2
      m_TileIndex: 11
      m_TileSpriteIndex: 11
      m_TileMatrixIndex: 0
      m_TileColorIndex: 0
      m_TileObjectToInstantiateIndex: 65535
      dummyAlignment: 0
      m_AllTileFlags: 1073741825
  - first: {x: -1, y: 0, z: 0}
    second:
      serializedVersion: 2
      m_TileIndex: 0
      m_TileSpriteIndex: 0
      m_TileMatrixIndex: 0
      m_TileColorIndex: 0
      m_TileObjectToInstantiateIndex: 65535
      dummyAlignment: 0
      m_AllTileFlags: 1073741825
  - first: {x: 0, y: 0, z: 0}
    second:
      serializedVersion: 2
      m_TileIndex: 1
      m_TileSpriteIndex: 35
      m_TileMatrixIndex: 0
      m_TileColorIndex: 2
      m_TileObjectToInstantiateIndex: 65535
      dummyAlignment: 0
      m_AllTileFlags: 1073741827
  - first: {x: 1, y: 0, z: 0}
    second:
      serializedVersion: 2
      m_TileIndex: 2
      m_TileSpriteIndex: 2
      m_TileMatrixIndex: 0
      m_TileColorIndex: 0
      m_TileObjectToInstantiateIndex: 65535
      dummyAlignment: 0
      m_AllTileFlags: 1073741825
  - first: {x: 2, y: 0, z: 0}
    second:
      serializedVersion: 2
      m_TileIndex: 3
      m_TileSpriteIndex: 3
      m_TileMatrixIndex: 0
      m_TileColorIndex: 0
      m_TileObjectToInstantiateIndex: 65535
      dummyAlignment: 0
      m_AllTileFlags: 1073741825
  - first: {x: 3, y: 0, z: 0}
    second:
      serializedVersion: 2
      m_TileIndex: 4
      m_TileSpriteIndex: 4
      m_TileMatrixIndex: 0
      m_TileColorIndex: 0
      m_TileObjectToInstantiateIndex: 65535
      dummyAlignment: 0
      m_AllTileFlags: 1073741825
  - first: {x: 4, y: 0, z: 0}
    second:
      serializedVersion: 2
      m_TileIndex: 5
      m_TileSpriteIndex: 5
      m_TileMatrixIndex: 0
      m_TileColorIndex: 0
      m_TileObjectToInstantiateIndex: 65535
      dummyAlignment: 0
      m_AllTileFlags: 1073741825
  m_AnimatedTiles: {}
  m_TileAssetArray:
  - m_RefCount: 1
    m_Data: {fileID: 11400000, guid: 95f314bd82617bf4dbbfb8de525ada09, type: 2}
  - m_RefCount: 1
    m_Data: {fileID: 0}
  - m_RefCount: 1
    m_Data: {fileID: 11400000, guid: b6135facc9c01144793b0316293d5813, type: 2}
  - m_RefCount: 1
    m_Data: {fileID: 11400000, guid: 3325e3fbea3e2d8449d335de340db325, type: 2}
  - m_RefCount: 1
    m_Data: {fileID: 11400000, guid: 6851f79ce6c555a429f3773783af9e0d, type: 2}
  - m_RefCount: 1
    m_Data: {fileID: 11400000, guid: ff2445c739e123e4b84b4746ba114692, type: 2}
  - m_RefCount: 1
    m_Data: {fileID: 11400000, guid: eb6b7fb5ac37f3f4ebc1d8ce0e4200a2, type: 2}
  - m_RefCount: 1
    m_Data: {fileID: 11400000, guid: e8a2d981e3ed3684fb2c7b91c178a43f, type: 2}
  - m_RefCount: 1
    m_Data: {fileID: 11400000, guid: 42bdbce5a11fc774fac30472cf3ecd29, type: 2}
  - m_RefCount: 1
    m_Data: {fileID: 11400000, guid: fa70892dfd4d94b449c0a85b8dd8d12d, type: 2}
  - m_RefCount: 1
    m_Data: {fileID: 11400000, guid: 373110c83c7b8ba41a2ea0fe3967d983, type: 2}
  - m_RefCount: 1
    m_Data: {fileID: 11400000, guid: dc9c269776b81bb4bb67682b4326a20c, type: 2}
  - m_RefCount: 1
    m_Data: {fileID: 11400000, guid: 1abe92c6421aad34bb415ad6b71ea92c, type: 2}
  - m_RefCount: 1
    m_Data: {fileID: 11400000, guid: 9b13d51aa0a426943b7f82174f05148a, type: 2}
  - m_RefCount: 1
    m_Data: {fileID: 11400000, guid: 6f92fb96f2d2ca64c8d213c6d88ec0d2, type: 2}
  - m_RefCount: 1
    m_Data: {fileID: 11400000, guid: 7902e64e42a34664684c25e1c7e88710, type: 2}
  - m_RefCount: 1
    m_Data: {fileID: 11400000, guid: a84d1a1e3e4f71945a1f018c4f9ecd67, type: 2}
  - m_RefCount: 1
    m_Data: {fileID: 11400000, guid: b4bb46a372dcc2846b038c9e9202f91f, type: 2}
  - m_RefCount: 1
    m_Data: {fileID: 11400000, guid: 263dd6512d5e77d4d96d32d9a0b08658, type: 2}
  - m_RefCount: 1
    m_Data: {fileID: 11400000, guid: 9061b3fe7f9865146afa688845a01e68, type: 2}
  - m_RefCount: 1
    m_Data: {fileID: 11400000, guid: 5014162d24c5137439a9d67a15a61e41, type: 2}
  - m_RefCount: 1
    m_Data: {fileID: 11400000, guid: cc3bc899cbd5a6a4a8f34e50793ed732, type: 2}
  - m_RefCount: 1
    m_Data: {fileID: 0}
  - m_RefCount: 1
    m_Data: {fileID: 11400000, guid: 4d7fff3119170c447bcdd9b3e32642a9, type: 2}
  - m_RefCount: 1
    m_Data: {fileID: 11400000, guid: 43783f8ef56b1cb469ca9f54bc4fba0c, type: 2}
  - m_RefCount: 1
    m_Data: {fileID: 11400000, guid: c5d13deea557dc94cb2b960a5aa85c33, type: 2}
  - m_RefCount: 1
    m_Data: {fileID: 11400000, guid: 1abc5d7b74c57cd45ba01fb092c153f6, type: 2}
  - m_RefCount: 1
    m_Data: {fileID: 11400000, guid: 8140df5fff3a0da459c7bb2746658d91, type: 2}
  - m_RefCount: 1
    m_Data: {fileID: 11400000, guid: 997568dc41adda04895d40df2d4664b2, type: 2}
  - m_RefCount: 1
    m_Data: {fileID: 11400000, guid: cb0933485a625964f8adef72dc7fd3dc, type: 2}
  - m_RefCount: 1
    m_Data: {fileID: 11400000, guid: f62678bb2107b7d40bbd6fcbaa2b9eeb, type: 2}
  - m_RefCount: 1
    m_Data: {fileID: 11400000, guid: b08e3a3182f2a114cbc907f7a51af50b, type: 2}
  - m_RefCount: 1
    m_Data: {fileID: 11400000, guid: c18d3f1eb93be4a4eb9335230d88fcf2, type: 2}
  - m_RefCount: 1
    m_Data: {fileID: 11400000, guid: 6d66942278bb87041acc5f311905d38f, type: 2}
  - m_RefCount: 1
    m_Data: {fileID: 11400000, guid: 1c4a244757d62ef4dbcb2a22f85c8298, type: 2}
  - m_RefCount: 1
    m_Data: {fileID: 11400000, guid: 6106376b650ffec4a992fb7fef4e4a33, type: 2}
  - m_RefCount: 1
    m_Data: {fileID: 11400000, guid: 2dc3aa97ca0788d4d8f5dee61c4b1472, type: 2}
  - m_RefCount: 1
    m_Data: {fileID: 11400000, guid: 908465e55a86bf042a2d0f5fb55d6d52, type: 2}
  - m_RefCount: 1
    m_Data: {fileID: 11400000, guid: 2106f14f53280074f90cb53af62bf611, type: 2}
  - m_RefCount: 1
    m_Data: {fileID: 11400000, guid: 3e1c2c80daec0d44885c1df2be7b4c4a, type: 2}
  - m_RefCount: 1
    m_Data: {fileID: 11400000, guid: 55969d78b286b1e47a00832f1f684879, type: 2}
  - m_RefCount: 1
    m_Data: {fileID: 11400000, guid: f710b8b26f3aba24cb4e008cad39f0f6, type: 2}
  - m_RefCount: 1
    m_Data: {fileID: 11400000, guid: 97b0ff73ec6c047449660413a23eb12c, type: 2}
  - m_RefCount: 1
    m_Data: {fileID: 11400000, guid: 22bce902460fcf74d9346a25f4f8d494, type: 2}
  - m_RefCount: 1
    m_Data: {fileID: 11400000, guid: 7aec06826d7a84846a85629356adce3a, type: 2}
  - m_RefCount: 1
    m_Data: {fileID: 11400000, guid: ecc83020a44a90c4b9be7893911381a2, type: 2}
  - m_RefCount: 1
    m_Data: {fileID: 11400000, guid: 7e1161e4f34fa6246a1500daa359f878, type: 2}
  - m_RefCount: 1
    m_Data: {fileID: 11400000, guid: ae10d1ae288b7034eab5880dad0ab5d4, type: 2}
  - m_RefCount: 1
    m_Data: {fileID: 11400000, guid: 84d14bf7925674d4c9e16d2365208cff, type: 2}
  - m_RefCount: 1
    m_Data: {fileID: 11400000, guid: ce2a641ef130774478570a9e303818db, type: 2}
  - m_RefCount: 1
    m_Data: {fileID: 11400000, guid: d67e3942f8c3a864e9b977843b07aa9a, type: 2}
  - m_RefCount: 1
    m_Data: {fileID: 11400000, guid: 193e5bcfca4654d41b5624b0224c940c, type: 2}
  m_TileSpriteArray:
  - m_RefCount: 1
    m_Data: {fileID: 21300000, guid: fa5a03052284378488c889d55a0e3e98, type: 3}
  - m_RefCount: 1
    m_Data: {fileID: 21300000, guid: 83af88527352393498c344ea871bc465, type: 3}
  - m_RefCount: 1
    m_Data: {fileID: 21300000, guid: 624a0688d4b7ca54d86863f782216fc9, type: 3}
  - m_RefCount: 1
    m_Data: {fileID: 21300000, guid: 4ca17caca507520499c5a6f3d5af0a91, type: 3}
  - m_RefCount: 1
    m_Data: {fileID: 21300000, guid: 73ec061e7811d0a4cac3fdc4a1077ec1, type: 3}
  - m_RefCount: 1
    m_Data: {fileID: 21300000, guid: bcee5f9dfde2e2b46a25ac3129b47408, type: 3}
  - m_RefCount: 1
    m_Data: {fileID: 21300000, guid: 2f4741cc1f960ec4d804347f80b76d26, type: 3}
  - m_RefCount: 1
    m_Data: {fileID: 21300000, guid: 5927a706fdb5a9341851e666e1ef4702, type: 3}
  - m_RefCount: 1
    m_Data: {fileID: 21300000, guid: cefc0421e98962c4baa883f84e44bb72, type: 3}
  - m_RefCount: 1
    m_Data: {fileID: 21300000, guid: 2aaf0252aaf76fa49b0efd7b37329ca2, type: 3}
  - m_RefCount: 1
    m_Data: {fileID: 21300000, guid: df2e34fa16892e54799fdc5c9b78851b, type: 3}
  - m_RefCount: 1
    m_Data: {fileID: 21300000, guid: ed937ea4880031f4db9d3bf5e2028630, type: 3}
  - m_RefCount: 1
    m_Data: {fileID: 21300000, guid: 69273276e1c8ccb49b6732c3e9722868, type: 3}
  - m_RefCount: 1
    m_Data: {fileID: 21300000, guid: 3adb8ebd7960b0749b9a4da6d4184cdc, type: 3}
  - m_RefCount: 1
    m_Data: {fileID: 21300000, guid: e40a5b60190c1684c9a77d8aba2a3c7d, type: 3}
  - m_RefCount: 1
    m_Data: {fileID: 21300000, guid: 8a3af081cb0881e41a2fd1d45bb3f900, type: 3}
  - m_RefCount: 1
    m_Data: {fileID: 21300000, guid: 0cb15d7d2eec9be4883788d8e6ea1009, type: 3}
  - m_RefCount: 1
    m_Data: {fileID: 21300000, guid: 6a6c4353903055d40be13d0d3c64f657, type: 3}
  - m_RefCount: 1
    m_Data: {fileID: 21300000, guid: 093b5ce68a6abe24fbdf2c832bfc9ce8, type: 3}
  - m_RefCount: 1
    m_Data: {fileID: 21300000, guid: 42ea12f94a9d5434cbf86d0418103a86, type: 3}
  - m_RefCount: 1
    m_Data: {fileID: 21300000, guid: a3c7ad09b6fe66740868f8555d0c5356, type: 3}
  - m_RefCount: 1
    m_Data: {fileID: 21300000, guid: 8b9f7b98aa858544a9bca8c25c24970f, type: 3}
  - m_RefCount: 1
    m_Data: {fileID: 21300000, guid: 8b0a2ba2d1b50b043a995aabfef6f1f7, type: 3}
  - m_RefCount: 1
    m_Data: {fileID: 21300000, guid: a5c53868494123c41aa13b085219200a, type: 3}
  - m_RefCount: 1
    m_Data: {fileID: 21300000, guid: 65cd38596b53f6d4d905906eb920e1f7, type: 3}
  - m_RefCount: 1
    m_Data: {fileID: 21300000, guid: 9ac3bf5a5f4d47f4eb82316a3c26e550, type: 3}
  - m_RefCount: 1
    m_Data: {fileID: 21300000, guid: 6f8f1ec53d179af408ca99ba2ac5cb15, type: 3}
  - m_RefCount: 1
    m_Data: {fileID: 21300000, guid: ed2e7cc1b24585d4281e04efec03c257, type: 3}
  - m_RefCount: 1
    m_Data: {fileID: 21300000, guid: c8b4a8e0ae5583c4bac2cc04faacb653, type: 3}
  - m_RefCount: 1
    m_Data: {fileID: 21300000, guid: 0ac4a1b6f2f2a48489417aac28f01fcc, type: 3}
  - m_RefCount: 1
    m_Data: {fileID: 21300000, guid: 35b587aa7e877ef4da9cc87577070eb0, type: 3}
  - m_RefCount: 1
    m_Data: {fileID: 21300000, guid: ebe3c0f3aa277074b8885ef6f72e4c2a, type: 3}
  - m_RefCount: 1
    m_Data: {fileID: 21300000, guid: 6a6b093decd2d4f4f953ad5b0c9f192a, type: 3}
  - m_RefCount: 1
    m_Data: {fileID: 21300000, guid: 84c0ea01a5a6f444a9297fe9ab4740b2, type: 3}
  - m_RefCount: 1
    m_Data: {fileID: 0}
  - m_RefCount: 1
    m_Data: {fileID: 0}
  - m_RefCount: 1
    m_Data: {fileID: 21300000, guid: 95b34bf8a34aa3543949566316d48302, type: 3}
  - m_RefCount: 1
    m_Data: {fileID: 21300000, guid: 111d6ad0100b30a409730acbc80f96fb, type: 3}
  - m_RefCount: 1
    m_Data: {fileID: 21300000, guid: e9b8e1622b3cc314396f4721ffd35a66, type: 3}
  - m_RefCount: 1
    m_Data: {fileID: 21300000, guid: 613b14988f467df4dbaefa49d7784a6c, type: 3}
  - m_RefCount: 1
    m_Data: {fileID: 21300000, guid: 006840a3143209e49978b3ace77c06ce, type: 3}
  - m_RefCount: 1
    m_Data: {fileID: 21300000, guid: 9313547624ac5ad4f859f9b6feba896e, type: 3}
  - m_RefCount: 1
    m_Data: {fileID: 21300000, guid: a295202cb7658cf4b858a3bfe8e5e0c5, type: 3}
  - m_RefCount: 1
    m_Data: {fileID: 21300000, guid: a0719ec8dfd104845904c76b6550b63e, type: 3}
  - m_RefCount: 1
    m_Data: {fileID: 21300000, guid: 96148a5969d9bcf42ab10e2088f8cc58, type: 3}
  - m_RefCount: 1
    m_Data: {fileID: 21300000, guid: 455987c62401e364387f9de25abc1ad8, type: 3}
  - m_RefCount: 1
    m_Data: {fileID: 21300000, guid: ec10fd6e05fb50c4783167418288578d, type: 3}
  - m_RefCount: 1
    m_Data: {fileID: 21300000, guid: 41cccea4cdff96e46b4643d6b38e07b2, type: 3}
  - m_RefCount: 1
    m_Data: {fileID: 21300000, guid: ccf2af7e5774cf84592daa40d84c1b60, type: 3}
  - m_RefCount: 1
    m_Data: {fileID: 21300000, guid: e23ebd906a70ca347a1e102f96b7a2aa, type: 3}
  - m_RefCount: 1
    m_Data: {fileID: 21300000, guid: 6569f050eb039b347b19b50bd2aa4c7a, type: 3}
  - m_RefCount: 1
    m_Data: {fileID: 21300000, guid: 1fca858e6a4b42b4e89903d4daa662c7, type: 3}
  m_TileMatrixArray:
  - m_RefCount: 52
    m_Data:
      e00: 1
      e01: 0
      e02: 0
      e03: 0
      e10: 0
      e11: 1
      e12: 0
      e13: 0
      e20: 0
      e21: 0
      e22: 1
      e23: 0
      e30: 0
      e31: 0
      e32: 0
      e33: 1
  m_TileColorArray:
  - m_RefCount: 50
    m_Data: {r: 1, g: 1, b: 1, a: 1}
  - m_RefCount: 1
    m_Data: {r: 0.92923194, g: 0.51671296, b: 0.53182775, a: 1}
  - m_RefCount: 1
    m_Data: {r: 0.9317944, g: 0.47157663, b: 0.5952317, a: 1}
  m_TileObjectToInstantiateArray: []
  m_AnimationFrameRate: 1
  m_Color: {r: 1, g: 1, b: 1, a: 1}
  m_Origin: {x: -1, y: -12, z: 0}
  m_Size: {x: 9, y: 13, z: 1}
  m_TileAnchor: {x: 0.5, y: 0.5, z: 0}
  m_TileOrientation: 0
  m_TileOrientationMatrix:
    e00: 1
    e01: 0
    e02: 0
    e03: 0
    e10: 0
    e11: 1
    e12: 0
    e13: 0
    e20: 0
    e21: 0
    e22: 1
    e23: 0
    e30: 0
    e31: 0
    e32: 0
    e33: 1
--- !u!483693784 &1790785649126501051
TilemapRenderer:
  m_ObjectHideFlags: 0
  m_CorrespondingSourceObject: {fileID: 0}
  m_PrefabInstance: {fileID: 0}
  m_PrefabAsset: {fileID: 0}
  m_GameObject: {fileID: 7819242368695870720}
  m_Enabled: 1
  m_CastShadows: 0
  m_ReceiveShadows: 0
  m_DynamicOccludee: 0
  m_MotionVectors: 1
  m_LightProbeUsage: 0
  m_ReflectionProbeUsage: 0
  m_RayTracingMode: 0
  m_RayTraceProcedural: 0
  m_RenderingLayerMask: 1
  m_RendererPriority: 0
  m_Materials:
  - {fileID: 10754, guid: 0000000000000000f000000000000000, type: 0}
  m_StaticBatchInfo:
    firstSubMesh: 0
    subMeshCount: 0
  m_StaticBatchRoot: {fileID: 0}
  m_ProbeAnchor: {fileID: 0}
  m_LightProbeVolumeOverride: {fileID: 0}
  m_ScaleInLightmap: 1
  m_ReceiveGI: 1
  m_PreserveUVs: 0
  m_IgnoreNormalsForChartDetection: 0
  m_ImportantGI: 0
  m_StitchLightmapSeams: 1
  m_SelectedEditorRenderState: 0
  m_MinimumChartSize: 4
  m_AutoUVMaxDistance: 0.5
  m_AutoUVMaxAngle: 89
  m_LightmapParameters: {fileID: 0}
  m_SortingLayerID: 0
  m_SortingLayer: 0
  m_SortingOrder: 0
  m_ChunkSize: {x: 32, y: 32, z: 32}
  m_ChunkCullingBounds: {x: 2.06, y: 3.36, z: 0}
  m_MaxChunkCount: 16
  m_MaxFrameAge: 16
  m_SortOrder: 0
  m_Mode: 0
  m_DetectChunkCullingBounds: 0
  m_MaskInteraction: 0
--- !u!1 &7893929578490307273
GameObject:
  m_ObjectHideFlags: 0
  m_CorrespondingSourceObject: {fileID: 0}
  m_PrefabInstance: {fileID: 0}
  m_PrefabAsset: {fileID: 0}
  serializedVersion: 6
  m_Component:
  - component: {fileID: 3923456484342254346}
  - component: {fileID: 1374427915848470825}
  m_Layer: 31
  m_Name: Escenarjo
  m_TagString: Untagged
  m_Icon: {fileID: 0}
  m_NavMeshLayer: 0
  m_StaticEditorFlags: 0
  m_IsActive: 1
--- !u!4 &3923456484342254346
Transform:
  m_ObjectHideFlags: 0
  m_CorrespondingSourceObject: {fileID: 0}
  m_PrefabInstance: {fileID: 0}
  m_PrefabAsset: {fileID: 0}
  m_GameObject: {fileID: 7893929578490307273}
  m_LocalRotation: {x: 0, y: 0, z: 0, w: 1}
  m_LocalPosition: {x: 0, y: 0, z: 0}
  m_LocalScale: {x: 1, y: 1, z: 1}
  m_Children:
  - {fileID: 1354458152278758890}
  m_Father: {fileID: 0}
  m_RootOrder: 0
  m_LocalEulerAnglesHint: {x: 0, y: 0, z: 0}
--- !u!156049354 &1374427915848470825
Grid:
  m_ObjectHideFlags: 0
  m_CorrespondingSourceObject: {fileID: 0}
  m_PrefabInstance: {fileID: 0}
  m_PrefabAsset: {fileID: 0}
  m_GameObject: {fileID: 7893929578490307273}
  m_Enabled: 1
  m_CellSize: {x: 4.7, y: 7.72, z: 0}
  m_CellGap: {x: 0, y: 0, z: 0}
  m_CellLayout: 0
  m_CellSwizzle: 0
--- !u!114 &5886752722910558229
MonoBehaviour:
  m_ObjectHideFlags: 0
  m_CorrespondingSourceObject: {fileID: 0}
  m_PrefabInstance: {fileID: 0}
  m_PrefabAsset: {fileID: 0}
  m_GameObject: {fileID: 0}
  m_Enabled: 1
  m_EditorHideFlags: 0
  m_Script: {fileID: 12395, guid: 0000000000000000e000000000000000, type: 0}
  m_Name: Palette Settings
  m_EditorClassIdentifier: 
  cellSizing: 0
  m_TransparencySortMode: 0
  m_TransparencySortAxis: {x: 0, y: 0, z: 1}
