%YAML 1.1
%TAG !u! tag:unity3d.com,2011:
--- !u!78 &1
TagManager:
  serializedVersion: 2
  tags:
  - Enemigo
  - Jugador
  - Suelo
  - Sueloo
  layers:
  - Default
  - TransparentFX
  - Ignore Raycast
  - Player
  - Water
  - UI
  - Sueloo
  - 
  - 
  - 
  - 
  - 
  - 
  - 
  - 
  - 
  - 
  - 
  - 
  - 
  - 
  - 
  - 
  - 
  - 
  - 
  - 
  - 
  - 
  - 
  - 
  - 
  m_SortingLayers:
  - name: Sierra
    uniqueID: 2155389931
    locked: 0
  - name: Default
    uniqueID: 0
    locked: 0
  - name: Jugador
    uniqueID: 1004909347
    locked: 0
  - name: Suelo
    uniqueID: 2362507759
    locked: 0
  - name: Enemigo
    uniqueID: 3681827089
    locked: 0
